…
### Exercise 14

> Who is the most commonly featured artist in the collection? Do you
> know them? Any guess as to why the university has so many pieces from
> them?

``` r
frequency_table_artist <- uoe_art_cleanyear %>%
  count(artist) %>%
  arrange(desc(n))
print(frequency_table_artist)
```

    ## # A tibble: 1,206 × 2
    ##    artist               n
    ##    <chr>            <int>
    ##  1 Unknown            374
    ##  2 Emma Gillies       175
    ##  3 <NA>               115
    ##  4 Ann F Ward          23
    ##  5 John Bellany        22
    ##  6 Zygmunt Bukowski    21
    ##  7 Boris Bućan         17
    ##  8 Marjorie Wallace    17
    ##  9 Gordon Bryce        16
    ## 10 William Gillon      16
    ## # ℹ 1,196 more rows
…
